Summary Visualizations
…
library(tidyverse)
library(ggridges)

## 
## Attaching package: 'ggridges'

## The following object is masked from 'package:ggplot2':
## 
##     scale_discrete_manual

library(plotly)

final_data

## # A tibble: 3,969 x 12
## # Groups:   location, year [3,226]
##    state_code location  year mean_temp total_precip max_temp min_temp
##    <chr>      <chr>    <dbl>     <dbl>        <dbl>    <dbl>    <dbl>
##  1 AL         Alabama   1953      63.8         59.4     92.8     34.1
##  2 AL         Alabama   1954      64.2         35.4     97.3     32.6
##  3 AL         Alabama   1955      63.4         48.2     91.9     33.2
##  4 AL         Alabama   1956      63.6         53.7     93.1     30.9
##  5 AL         Alabama   1957      64.0         58.9     92.4     35.6
##  6 AL         Alabama   1958      61.2         49.2     90.5     26.6
##  7 AL         Alabama   1959      63.0         56.1     92       30.3
##  8 AL         Alabama   1960      61.5         51.0     93.4     30  
##  9 AL         Alabama   1961      61.9         69.8     89.2     27.9
## 10 AL         Alabama   1962      63.0         50.1     93       31.4
## # ... with 3,959 more rows, and 5 more variables: disaster <fct>,
## #   n_disaster_state <int>, n_state <int>, n_total <int>, n_type <int>
…
